{
	"appName": "Tiny File Manager",
	"version": "2.4.3",
	"language": [
		{
			"name": "Español",
			"code": "es",
			"translation": {
				"AppName": "Pequeño Administrador de Archivos",
				"AppTitle": "Administrador de Archivos",
				"Login": "Iniciar Sesión",
				"Username": "Nombre de Usuario",
				"Password": "Contraseña",
				"Logout": "Desconectarse",
				"Move": "Mover",
				"Copy": "Copiar",
				"Save": "Guardar",
				"SelectAll": "Seleccionar Todo",
				"UnSelectAll": "Des-seleccionar Todo",
				"File": "Archivo",
				"Back": "Atrás",
				"Size": "Tamaño",
				"Perms": "Permisos",
				"Modified": "Modificado",
				"Owner": "Propietario",
				"Search": "Buscar",
				"NewItem": "Nuevo Ítem",
				"Folder": "Carpeta",
				"Delete": "Borrar",
				"Rename": "Cambiar Nombre",
				"CopyTo": "Copiar en",
				"DirectLink": "Link Directo",
				"UploadingFiles": "Subir Archivos",
				"ChangePermissions": "Cambiar Permisos",
				"Copying": "Copiando",
				"CreateNewItem": "Crear nuevo Item",
				"Name": "Nombre",
				"AdvancedEditor": "Editor Avanzado",
				"RememberMe": "Recuérdame",
				"Actions": "Acciones",
				"Upload": "Subir",
				"Cancel": "Cancelar",
				"InvertSelection": "Invertir Selección",
				"DestinationFolder": "Carpeta Destino",
				"ItemType": "Tipo de Ítem",
				"ItemName": "Nombre del Ítem",
				"CreateNow": "Crear",
				"Download": "Descargar",
				"Open": "Abrir",
				"UnZip": "Descomprimir",
				"UnZipToFolder": "Descomprimir en Carpeta",
				"Edit": "Editar",
				"NormalEditor": "Editor Normal",
				"BackUp": "Copia de Seguridad",
				"SourceFolder": "Carpeta Actual",
				"Files": "Archivos",
				"Change": "Cambiar",
				"Settings": "Preferencias",
				"Language": "Lenguaje"
			}
		},
		{
			"name": "Português",
			"code": "pt",
			"translation": {
				"AppName": "Gerenciador de Arquivos",
				"AppTitle": "Gerenciador de Arquivos",
				"Login": "Iniciar Sessão",
				"Username": "Nome de usuário",
				"Password": "Senha",
				"Logout": "Sair",
				"Move": "Mover",
				"Copy": "Copiar",
				"Save": "Salvar",
				"SelectAll": "Selecionar tudo",
				"UnSelectAll": "Desmarcar tudo",
				"File": "Arquivo",
				"Back": "Voltar",
				"Size": "Tamanho",
				"Perms": "Permissões",
				"Modified": "Modificado",
				"Owner": "Proprietário",
				"Search": "Buscar",
				"NewItem": "Novo Item",
				"Folder": "Pasta",
				"Delete": "Excluir",
				"Rename": "Renomear",
				"CopyTo": "Copiar em",
				"DirectLink": "Link direto",
				"UploadingFiles": "Upload de arquivos",
				"ChangePermissions": "Alterar permissões",
				"Copying": "Copiando",
				"CreateNewItem": "Criar novo item",
				"Name": "Nome",
				"AdvancedEditor": "Editor Avançado",
				"RememberMe": "Lembra de mim",
				"Actions": "Ações",
				"Upload": "Upload",
				"Cancel": "Cancelar",
				"InvertSelection": "Seleção reversa",
				"DestinationFolder": "Pasta de destino",
				"ItemType": "Tipo de Item",
				"ItemName": "Nome do item",
				"CreateNow": "Criar",
				"Download": "Baixar",
				"Open": "Abrir",
				"UnZip": "Descompactar os arquivos",
				"UnZipToFolder": "Descompactar na pasta",
				"Edit": "Editar",
				"NormalEditor": "Editor Normal",
				"BackUp": "Copia de segurança",
				"SourceFolder": "Pasta atual",
				"Files": "Arquivos",
				"Change": "Alterar",
				"Settings": "Preferências",
				"Language": "Idioma",
				"Preview": "Visualizar",
				"MemoryUsed": "Memória usada",
				"PartitionSize": "Tamanho da partição",
				"ErrorReporting": "Relatório de erros",
				"ShowHiddenFiles": "Mostrar arquivos ocultos",
				"Group": "Grupo",
				"Other": "Outros",
				"Read": "Ler",
				"Write": "Escrever",
				"Execute": "Executar",
				"enable": "habilitar",
				"disable": "desativar",
				"FreeOf": "Livre de",
				"Free Of": "Livre de",
				"FullSize": "tamanho completo",
				"Help": "Ajuda / Suporte",
				"Generate": "Gerar",
				"Report Issue": "Informar problema",
				"Generate new password hash": "Gerar nova hash de senha",
				"Help Documents": "Documentos de Ajuda",
				"Check Latest Version": "Verifique a última versão",
				"HideColumns": "Ocultar colunas Perms / Owner",
				"CalculateFolderSize": "Calcular o tamanho da pasta",
				"You are logged in": "Você está logado"
			}
		}
	]
}
